121
100.00   100.00     0.00 285.2004  87.8261
100.00   120.00     0.00 312.9520  99.1084
100.00   140.00     0.00 341.4151 110.6800
100.00   160.00     0.00 370.6176 122.5522
100.00   180.00     0.00 400.5885 134.7368
100.00   200.00     0.00 431.3587 147.2464
100.00   220.00     0.00 462.9605 160.0940
100.00   240.00     0.00 495.4281 173.2936
100.00   260.00     0.00 528.7975 186.8599
100.00   280.00     0.00 563.1070 200.8083
100.00   300.00     0.00 598.3967 215.1553
120.00   100.00     0.00 263.3769 102.9329
120.00   120.00     0.00 291.3239 114.6035
120.00   140.00     0.00 320.0000 126.5784
120.00   160.00     0.00 349.4340 138.8699
120.00   180.00     0.00 379.6564 151.4907
120.00   200.00     0.00 410.6994 164.4541
120.00   220.00     0.00 442.5967 177.7742
120.00   240.00     0.00 475.3842 191.4661
120.00   260.00     0.00 509.0996 205.5455
120.00   280.00     0.00 543.7830 220.0291
120.00   300.00     0.00 579.4765 234.9346
140.00   100.00     0.00 240.8009 118.5607
140.00   120.00     0.00 268.9403 130.6398
140.00   140.00     0.00 297.8268 143.0396
140.00   160.00     0.00 327.4905 155.7731
140.00   180.00     0.00 357.9632 168.8538
140.00   200.00     0.00 389.2784 182.2961
140.00   220.00     0.00 421.4717 196.1154
140.00   240.00     0.00 454.5804 210.3276
140.00   260.00     0.00 488.6442 224.9498
140.00   280.00     0.00 523.7049 240.0000
140.00   300.00     0.00 559.8071 255.4972
160.00   100.00     0.00 217.4328 134.7368
160.00   120.00     0.00 245.7609 147.2464
160.00   140.00     0.00 274.8546 160.0940
160.00   160.00     0.00 304.7454 173.2936
160.00   180.00     0.00 335.4665 186.8599
160.00   200.00     0.00 367.0530 200.8083
160.00   220.00     0.00 399.5419 215.1553
160.00   240.00     0.00 432.9726 229.9181
160.00   260.00     0.00 467.3865 245.1151
160.00   280.00     0.00 502.8277 260.7657
160.00   300.00     0.00 539.3429 276.8906
180.00   100.00     0.00 193.2301 151.4907
180.00   120.00     0.00 221.7423 164.4541
180.00   140.00     0.00 251.0393 177.7742
180.00   160.00     0.00 281.1539 191.4661
180.00   180.00     0.00 312.1208 205.5455
180.00   200.00     0.00 343.9767 220.0291
180.00   220.00     0.00 376.7605 234.9346
180.00   240.00     0.00 410.5132 250.2806
180.00   260.00     0.00 445.2785 266.0870
180.00   280.00     0.00 481.1027 282.3748
180.00   300.00     0.00 518.0348 299.1663
200.00   100.00     0.00 168.1473 168.8538
200.00   120.00     0.00 196.8383 182.2961
200.00   140.00     0.00 226.3338 196.1154
200.00   160.00     0.00 256.6680 210.3276
200.00   180.00     0.00 287.8773 224.9498
200.00   200.00     0.00 320.0000 240.0000
200.00   220.00     0.00 353.0768 255.4972
200.00   240.00     0.00 387.1510 271.4617
200.00   260.00     0.00 422.2682 287.9148
200.00   280.00     0.00 458.4771 304.8795
200.00   300.00     0.00 495.8295 322.3799
220.00   100.00     0.00 142.1354 186.8599
220.00   120.00     0.00 170.9989 200.8083
220.00   140.00     0.00 200.6871 215.1553
220.00   160.00     0.00 231.2358 229.9181
220.00   180.00     0.00 262.6830 245.1151
220.00   200.00     0.00 295.0690 260.7657
220.00   220.00     0.00 328.4363 276.8906
220.00   240.00     0.00 362.8303 293.5117
220.00   260.00     0.00 398.2991 310.6522
220.00   280.00     0.00 434.8939 328.3368
220.00   300.00     0.00 472.6692 346.5919
240.00   100.00     0.00 115.1420 205.5455
240.00   120.00     0.00 144.1705 220.0291
240.00   140.00     0.00 174.0444 234.9346
240.00   160.00     0.00 204.8014 250.2806
240.00   180.00     0.00 236.4810 266.0870
240.00   200.00     0.00 269.1255 282.3748
240.00   220.00     0.00 302.7796 299.1663
240.00   240.00     0.00 337.4909 316.4853
240.00   260.00     0.00 373.3100 334.3571
240.00   280.00     0.00 410.2908 352.8085
240.00   300.00     0.00 448.4908 371.8681
260.00   100.00     0.00 87.1104 224.9498
260.00   120.00     0.00 116.2951 240.0000
260.00   140.00     0.00 146.3466 255.4972
260.00   160.00     0.00 177.3042 271.4617
260.00   180.00     0.00 209.2095 287.9148
260.00   200.00     0.00 242.1066 304.8795
260.00   220.00     0.00 276.0426 322.3799
260.00   240.00     0.00 311.0675 340.4418
260.00   260.00     0.00 347.2345 359.0926
260.00   280.00     0.00 384.6003 378.3618
260.00   300.00     0.00 423.2257 398.2804
280.00   100.00     0.00 57.9796 245.1151
280.00   120.00     0.00 87.3102 260.7657
280.00   140.00     0.00 117.5297 276.8906
280.00   160.00     0.00 148.6790 293.5117
280.00   180.00     0.00 180.8016 310.6522
280.00   200.00     0.00 213.9441 328.3368
280.00   220.00     0.00 248.1557 346.5919
280.00   240.00     0.00 283.4890 365.4455
280.00   260.00     0.00 320.0000 384.9275
280.00   280.00     0.00 357.7487 405.0700
280.00   300.00     0.00 396.7991 425.9070
300.00   100.00     0.00 27.6835 266.0870
300.00   120.00     0.00 57.1483 282.3748
300.00   140.00     0.00 87.5244 299.1663
300.00   160.00     0.00 118.8547 316.4853
300.00   180.00     0.00 151.1850 334.3571
300.00   200.00     0.00 184.5638 352.8085
300.00   220.00     0.00 219.0430 371.8681
300.00   240.00     0.00 254.6779 391.5667
300.00   260.00     0.00 291.5276 411.9368
300.00   280.00     0.00 329.6554 433.0133
300.00   300.00     0.00 369.1288 454.8338
