49
23.495000 23.495000 0.000000 391.516724 69.967865
46.990000 23.495000 0.000000 393.354034 128.613464
70.485000 23.495000 0.000000 395.537201 187.765564
93.980000 23.495000 0.000000 395.858948 245.345657
117.475000 23.495000 0.000000 394.579224 300.384949
140.970000 23.495000 0.000000 395.519043 358.462738
164.465000 23.495000 0.000000 396.093506 417.128967
23.495000 46.990000 0.000000 341.598846 70.742470
46.990000 46.990000 0.000000 343.700592 129.408508
70.485000 46.990000 0.000000 344.534241 189.784363
93.980000 46.990000 0.000000 343.347778 246.391846
117.475000 46.990000 0.000000 343.509430 302.302673
140.970000 46.990000 0.000000 344.337708 359.645782
164.465000 46.990000 0.000000 345.233490 418.633545
23.495000 70.485000 0.000000 287.513153 72.040199
46.990000 70.485000 0.000000 289.814819 131.457565
70.485000 70.485000 0.000000 290.228821 189.783646
93.980000 70.485000 0.000000 290.696106 248.869797
117.475000 70.485000 0.000000 289.346008 302.888306
140.970000 70.485000 0.000000 288.393799 362.500397
164.465000 70.485000 0.000000 288.448029 421.060638
23.495000 93.980000 0.000000 235.397217 73.484451
46.990000 93.980000 0.000000 236.355515 132.430939
70.485000 93.980000 0.000000 236.469482 190.588318
93.980000 93.980000 0.000000 236.038940 250.452057
117.475000 93.980000 0.000000 236.000000 305.000000
140.970000 93.980000 0.000000 235.973572 365.326080
164.465000 93.980000 0.000000 235.658920 422.739502
23.495000 117.475000 0.000000 180.469101 74.339790
46.990000 117.475000 0.000000 182.052917 132.755707
70.485000 117.475000 0.000000 181.598831 192.532211
93.980000 117.475000 0.000000 181.472046 251.400284
117.475000 117.475000 0.000000 180.212891 306.588379
140.970000 117.475000 0.000000 180.934921 366.509491
164.465000 117.475000 0.000000 180.698929 423.826233
23.495000 140.970000 0.000000 126.475075 73.536293
46.990000 140.970000 0.000000 125.849380 131.888962
70.485000 140.970000 0.000000 124.890060 193.575119
93.980000 140.970000 0.000000 124.488525 251.038025
117.475000 140.970000 0.000000 124.402969 308.654938
140.970000 140.970000 0.000000 122.847191 367.734558
164.465000 140.970000 0.000000 124.124779 425.601562
23.495000 164.465000 0.000000 68.823097 71.706284
46.990000 164.465000 0.000000 68.004364 134.029633
70.485000 164.465000 0.000000 66.929039 194.523376
93.980000 164.465000 0.000000 67.148895 251.730392
117.475000 164.465000 0.000000 67.479492 310.516022
140.970000 164.465000 0.000000 66.182106 369.438690
164.465000 164.465000 0.000000 67.185577 428.499817
