49
23.495000 23.495000 0.000000 89.824715 459.313110
46.990000 23.495000 0.000000 87.936172 396.203247
70.485000 23.495000 0.000000 86.529854 333.723602
93.980000 23.495000 0.000000 82.881607 270.797211
117.475000 23.495000 0.000000 79.485237 210.023346
140.970000 23.495000 0.000000 77.143021 144.798340
164.465000 23.495000 0.000000 74.845299 77.969429
23.495000 46.990000 0.000000 148.444931 461.074646
46.990000 46.990000 0.000000 146.664978 398.753204
70.485000 46.990000 0.000000 146.103790 334.569183
93.980000 46.990000 0.000000 143.415466 273.257019
117.475000 46.990000 0.000000 140.473328 210.606216
140.970000 46.990000 0.000000 138.455322 144.598923
164.465000 46.990000 0.000000 136.543671 78.766998
23.495000 70.485000 0.000000 208.356430 463.043243
46.990000 70.485000 0.000000 206.863754 400.418884
70.485000 70.485000 0.000000 205.261185 335.814941
93.980000 70.485000 0.000000 203.440353 274.746002
117.475000 70.485000 0.000000 201.514664 210.403656
140.970000 70.485000 0.000000 199.740738 144.668640
164.465000 70.485000 0.000000 197.516312 80.298355
23.495000 93.980000 0.000000 268.096924 465.519989
46.990000 93.980000 0.000000 266.231689 401.685669
70.485000 93.980000 0.000000 265.299713 336.221802
93.980000 93.980000 0.000000 263.733978 276.539032
117.475000 93.980000 0.000000 262.287231 209.303528
140.970000 93.980000 0.000000 261.374969 144.502991
164.465000 93.980000 0.000000 261.491058 78.491074
23.495000 117.475000 0.000000 328.465851 467.583282
46.990000 117.475000 0.000000 327.267151 402.293640
70.485000 117.475000 0.000000 326.759338 336.620667
93.980000 117.475000 0.000000 326.377136 276.282745
117.475000 117.475000 0.000000 325.298767 210.197128
140.970000 117.475000 0.000000 324.573456 144.316895
164.465000 117.475000 0.000000 324.530212 76.617935
23.495000 140.970000 0.000000 392.214081 468.928589
46.990000 140.970000 0.000000 392.430847 403.206635
70.485000 140.970000 0.000000 391.324158 338.189301
93.980000 140.970000 0.000000 388.738403 275.535065
117.475000 140.970000 0.000000 388.931335 210.447403
140.970000 140.970000 0.000000 390.193115 143.007828
164.465000 140.970000 0.000000 389.576782 74.902664
23.495000 164.465000 0.000000 454.245178 471.706940
46.990000 164.465000 0.000000 452.343353 404.161255
70.485000 164.465000 0.000000 451.646179 339.220093
93.980000 164.465000 0.000000 452.747498 276.333954
117.475000 164.465000 0.000000 452.842865 210.184204
140.970000 164.465000 0.000000 452.830139 141.830154
164.465000 164.465000 0.000000 453.328369 74.463554
