49
23.495000 23.495000 0.000000 94.239342 90.473129
46.990000 23.495000 0.000000 171.149734 91.613029
70.485000 23.495000 0.000000 243.163681 92.998260
93.980000 23.495000 0.000000 317.794586 91.419395
117.475000 23.495000 0.000000 389.256500 88.783455
140.970000 23.495000 0.000000 464.802277 86.547798
164.465000 23.495000 0.000000 536.616699 86.925179
23.495000 46.990000 0.000000 95.156029 169.489380
46.990000 46.990000 0.000000 169.692108 168.841660
70.485000 46.990000 0.000000 244.388107 168.779938
93.980000 46.990000 0.000000 318.365021 168.475266
117.475000 46.990000 0.000000 390.643402 166.116196
140.970000 46.990000 0.000000 466.260834 165.158234
164.465000 46.990000 0.000000 538.280823 162.816193
23.495000 70.485000 0.000000 96.809189 246.952805
46.990000 70.485000 0.000000 170.515900 245.782623
70.485000 70.485000 0.000000 246.189575 245.454941
93.980000 70.485000 0.000000 318.726318 243.128296
117.475000 70.485000 0.000000 392.519745 244.454193
140.970000 70.485000 0.000000 466.552948 242.783432
164.465000 70.485000 0.000000 539.326599 241.331345
23.495000 93.980000 0.000000 97.846710 319.718811
46.990000 93.980000 0.000000 172.257202 320.328857
70.485000 93.980000 0.000000 246.670044 320.510864
93.980000 93.980000 0.000000 319.365784 321.022095
117.475000 93.980000 0.000000 392.704285 318.688477
140.970000 93.980000 0.000000 464.360260 316.670410
164.465000 93.980000 0.000000 537.548828 315.657196
23.495000 117.475000 0.000000 100.772186 393.865601
46.990000 117.475000 0.000000 173.956009 392.864960
70.485000 117.475000 0.000000 247.484985 392.308044
93.980000 117.475000 0.000000 319.265991 389.808716
117.475000 117.475000 0.000000 392.018890 388.809570
140.970000 117.475000 0.000000 466.595276 389.333435
164.465000 117.475000 0.000000 537.035339 389.329712
23.495000 140.970000 0.000000 100.639977 467.911591
46.990000 140.970000 0.000000 173.973099 468.459839
70.485000 140.970000 0.000000 247.654755 466.704620
93.980000 140.970000 0.000000 320.164368 466.724304
117.475000 140.970000 0.000000 390.864532 464.937469
140.970000 140.970000 0.000000 467.211182 464.098541
164.465000 140.970000 0.000000 537.113037 462.689484
23.495000 164.465000 0.000000 102.584137 542.036011
46.990000 164.465000 0.000000 175.264099 541.459595
70.485000 164.465000 0.000000 247.974030 541.165955
93.980000 164.465000 0.000000 320.451263 541.302673
117.475000 164.465000 0.000000 391.383545 540.247253
140.970000 164.465000 0.000000 467.226471 538.223999
164.465000 164.465000 0.000000 537.895447 539.710632
